{
"server": {
  "listenerAddress": "0.0.0.0",
  "listenerPort": 5020,
  "tlsParams": {
    "description": "path to certificate and private key to enable tls",
    "privateKey": null,
    "certificate": null
    },
  "logging": {
    "format": "%(asctime)-15s %(threadName)-15s  %(levelname)-8s %(module)-15s:%(lineno)-8s %(message)s",
    "logLevel": "DEBUG"
    }
  },
"registers": {
  "description": "initial values for the register types",
  "zeroMode": false,
  "initializeUndefinedRegisters": true,
  "discreteInput": {},
  "coils": {},
  "holdingRegister": {
    "0": 1,
    "1": "0x0001",
    "2": "0x0002",
    "3": "0x0003",
    "4": "0x0004",
    "5": "0x0005",
    "6": "0x0006",
    "7": "0x0007",
    "8": "0x0008",
    "9": "0x0009",
    "10": 10,
    "11": 20,
    "12": 30,
    "13": 40,
    "14": 50,
    "15": 60,
    "16": 70,
    "17": 80,
    "18": 90,
    "19": 80,
    "20": 70
  },
  "inputRegister": {}
  }
}
